{
    "name":"Guildes-etc",
    "content":
    {
        "Famille_LaRosiere":
        {
            "entête":"Famille LaRosière",
            "short_desc":"Famille noble très ancienne devenue experte en manœuvres militaires et techniques de combat.\nElle possède de très grands alliés mais aussi quelques puissants ennemis.\nSeul le premier enfant est héritier. Le second devient prêtre et les suivants sont de simples nobles de la famille.",
            "desc":"Non renseignée",
            "author":"@Casabianca#1935"
        },
        "Ordre_Gonkea":
        {
            "entête":"Ordre Gonkea",
            "short_desc":"Celui-ci est orienté vers la magie rituelle même si la magie des saisons n'est pas mal vue, elle est toutefois jugée plus aléatoire.\nHistoire plus complète ci-après...",
            "desc":"Cet Ordre existe depuis longtemps mais n'a prit son essor que depuis un siècle environ. Son essor débuta avec le déclin d'ordre magique tout aussi important, hors ces derniers voyant l'âge moyen de leurs mebres s'élever, ils ne pûrent se renouveller suffisamment pour conserver leur importance.\nL'Ordre Gonkea pût donc prospérer grâce à une politique d'investissement judicieuse au sein de divers guildes de plus faibles importance, afin de former mes éventuels aspirants. Ainsi en quelques générations cet ordre devint un ordre majeur de magicien.\nChacun des membres de cet ordre sont classé selon deux critères, à savoir leurs 'affinitées' magiques et par ailleurs par leur position hiérarchique. Sachant que les deux classements sont calculées comme il suit au sein de cet ordre :\n    -On juge en premier lieu la magie rituelle du mage à travers 2 critères : Le Nombre de sorts et le Type de magie que le magicien maîtrise (Débutante, Intermédiaire ou Avancée).\n    -En second lieu, on juge les éventuelles magies des saisons avec lesquelles le mage possède des affinitées.\n    -En dernier lieu, si le magicien pratique une activité nativement non magique et que le dit mage parvient a faire entrer en résonnance les deux activitées cela est également pris en compte.\nLes mages sont alors classés par classe allant de la Ière (Atteinte que par les prophètes de légendes) à la XIIème (Pour les non-réceptif à la magie).\nDans ce classement aucune catégorie n'a de limite de place, cela permet juste de juger au premier coup d'oeil la puissance du magicien.\nLes mages de Vème classe ou Inférieure (IV, III, etc...) ont le droit d'enrôler des 'adeptes' quelque que soit leurs classes si ces derniers le souhaitent. Ainsi le mage devient leur maître afin de les aider (souvent à progresser).\nL'autre classement ne dépend pas de la valeur de vos affinitées magiques mais de votre place au sein de l'ordre et il est estimé par les personnes, appartenant à votre classe actuelle (Sauf pour le Gonkéïste) et le classement permet de vous placer (cf schéma ci-après) et en fonction de votre rang vos responsabilités varient.\n\nLe Gonkéïste :\nLe représentant de l'ordre Gonkea est choisi par les membres n'appartenant pas au conseil. N'importe quel membre de l'ordre peut être désigné pour ce rôle. Celui-ci reste en place tant qu'il n'a pas utilisé son Veto ou qu'aucune majorité au sein d'un grade ne souhaite remettre sa place au vote.\nSchéma des classes :\n\nI       Vayn\nII      \nIII     Obh'Ur\nIV      \nV       Geemsak\nVI      \nVII     \nVIII    Ohn'At\nIX      \nX       Fih'Res\nXI      \nXII     Makaj'\nXIII    Caluk\n\nNote : Les Classes et les Grades impactent votre marque ainsi que les autres guildes dont vous faite partie.\nLa Classe impacte l'aspect des Lunes et le Grade impacte l'aspect du livre.\nSchéma des grades:\n\n1.      Gonkéïste\n2.      Gonkéaste\n4.      Gonkéyoste\n8.      Gonkéoste\n16.     Gonkéos\n32.     Gonkégun\n64.     Gonkéraî\n128.    \n256.    \n512.    \n1024.   \n2048.   \nInfini. \n\nLe Haut Conseil est composé des 5 premiers grades.\nLe Conseil quand à lui est composé des 7 premiers grades.\n\n\nNote : Si tu as lu jusque ici tu as dû te rendre compte qu'il manquait des noms pour les grades et classes donc si tu as des idées hésite pas à me les proposer. ;) (Ou même des suggestions).",
            "author":"@Mathius#4129"
        },
        "Guilde_Manrea":
        {
            "entête":"Guilde Manrea",
            "short_desc":"Guilde Mineure d'Herboriste et de guérisseur basé sur le respect de la Nature. Leurs adeptes sont axés sur la Magie du Printemps.",
            "desc":"Non renseignée",
            "author":"@Mathius#4129"
        },
        "Guilde_Nipia":
        {
            "entête":"Guilde Nipia",
            "short_desc":"Guilde Mineure de Ménestrel. Celle-ci est de faible envergure. L'ambiance y est amicale et la plupart des membres sont axés vers l'une ou l'autre des saisons.",
            "desc":"Non renseignée",
            "author":"@Mathius#4129"
        },
        "Guilde_Surok":
        {
            "entête":"Guilde Surok",
            "short_desc":"Cette Guilde est discrète par rapport à des guildes traditionelles mais tout aussi importante. C'est un grand regroupement de météomanciens qui font circuler leurs prévisions à qui le souhaite.",
            "desc":"Non renseignée",
            "author":"@Mathius#4129"
        },
        "Guilde_Luméa":
        {
            "entête":"Guilde Luméa",
            "short_desc":"Guilde regroupant toute personne affiliée à la croyance de la 'Pantoufle'.\nRumeur selon laquelle les pantoufles sont au coeur des désidératas des dragons.\n(Leur argument serait que sur toutes les stèles draconniques trouvées jusqu'à présent, le dragon représenté porte des pantoufles)",
            "desc":"Non renseignée",
            "author":"@Mathius#4129"
        }
    },
    "allow_in":
    [
        606103783109427229
    ]
}
