{
    "name":"Lore",
    "content":
    {
        "entête":"Dyhylir",
        "forme":"Monde en forme de Tore.",
        "histoire":"",
        "pratiques et conventions":"",
        "pantheon":"",
        "faction":"",
        "menaces":"",
        "mystères":""
    },
    "allow_in":
    [
        630460272959815729
    ]
}
