{
    "name":"Dispos",
    "help":"Pour nos dispos :3",
    "comportement":"one",
    "content":
    {
        "default":
        {
            "msg":"",
            "act":"all"
        },
        "patern":
        {
            "Dispos":
            {
                "action":"display",
                "options":
                {
                    "content":
                    [
                        "__Dispo les :__\n",
                        "\n\n"
                    ]
                }
            },
            "Personnage":
            {
                "action":"display",
                "options":
                {
                    "content":
                    [
                        "__Personnage :__\n",
                        "\n\n"
                    ]
                }
            }
        }
    }
}