{
    "name":"Guildes-etc",
    "help":"Infos sur les diverses guildes, familles, etc du lore.",
    "comportement":"one",
    "content":
    {
        "default":
        {
            "msg":"Veuillez sélectionner une guilde, une famille, etc pour pouvoir visualiser les informations liées à celles-ci.\n\n",
            "act":"list"
        },
        "patern":
        {
            "entête":
            {
                "action":"display",
                "options":
                {
                    "content":
                    [
                        "__",
                        " :__\n\n"
                    ]
                }
            },
            "short_desc":
            {
                "action":"display",
                "options":
                {
                    "content":
                    [
                        "__Résumé Très Rapide :__\n",
                        "\n\n"
                    ]
                }
            },
            "desc":
            {
                "action":"display",
                "options":
                {
                    "content":
                    [
                        "__Description :__\n",
                        "\n\n"
                    ]
                }
            },
            "author":
            {
                "action":"display",
                "options":
                {
                    "content":
                    [
                        "*__Auteur :__ ",
                        "*\n\n"
                    ]
                }
            }
        }
    }
}